{
    "integrated_efficiencies": {
        "CanRecoChildren": {
            "Bp_Hlt1BeamGasDecisionTrueSim": 0.0,
            "Bp_Hlt1Bs2GammaGammaDecisionTrueSim": 0.0,
            "Bp_Hlt1D2KKDecisionTrueSim": 0.03780964797913951,
            "Bp_Hlt1D2KPiAlignmentDecisionTrueSim": 0.06540634506736202,
            "Bp_Hlt1D2KPiDecisionTrueSim": 0.06540634506736202,
            "Bp_Hlt1D2PiPiDecisionTrueSim": 0.04889178617992177,
            "Bp_Hlt1DiMuonDrellYanDecisionTrueSim": 0.0,
            "Bp_Hlt1DiMuonDrellYan_SSDecisionTrueSim": 0.0,
            "Bp_Hlt1DiMuonDrellYan_VLowMassDecisionTrueSim": 0.0,
            "Bp_Hlt1DiMuonDrellYan_VLowMass_SSDecisionTrueSim": 0.0,
            "Bp_Hlt1DiMuonHighMassAlignmentDecisionTrueSim": 0.0,
            "Bp_Hlt1DiMuonHighMassDecisionTrueSim": 0.0,
            "Bp_Hlt1DiMuonLowMassDecisionTrueSim": 0.000434593654932638,
            "Bp_Hlt1DiMuonNoIPDecisionTrueSim": 0.000217296827466319,
            "Bp_Hlt1DiMuonNoIP_ssDecisionTrueSim": 0.0,
            "Bp_Hlt1DiMuonSoftDecisionTrueSim": 0.0,
            "Bp_Hlt1DisplacedDiMuonAlignmentDecisionTrueSim": 0.0,
            "Bp_Hlt1DisplacedDielectronDecisionTrueSim": 0.5971316818774446,
            "Bp_Hlt1DisplacedLeptonsDecisionTrueSim": 0.0,
            "Bp_Hlt1GECPassthroughDecisionTrueSim": 0.0,
            "Bp_Hlt1KsToPiPiDecisionTrueSim": 0.0,
            "Bp_Hlt1L02PPiDecisionTrueSim": 0.000434593654932638,
            "Bp_Hlt1LowMassNoipDielectron_SS_massSlice1_displacedDecisionTrueSim": 0.0,
            "Bp_Hlt1LowMassNoipDielectron_SS_massSlice1_promptDecisionTrueSim": 0.0,
            "Bp_Hlt1LowMassNoipDielectron_SS_massSlice2_displacedDecisionTrueSim": 0.0,
            "Bp_Hlt1LowMassNoipDielectron_SS_massSlice2_promptDecisionTrueSim": 0.0,
            "Bp_Hlt1LowMassNoipDielectron_SS_massSlice3_displacedDecisionTrueSim": 0.0,
            "Bp_Hlt1LowMassNoipDielectron_SS_massSlice3_promptDecisionTrueSim": 0.0,
            "Bp_Hlt1LowMassNoipDielectron_SS_massSlice4_displacedDecisionTrueSim": 0.0,
            "Bp_Hlt1LowMassNoipDielectron_SS_massSlice4_promptDecisionTrueSim": 0.0,
            "Bp_Hlt1LowMassNoipDielectron_massSlice1_displacedDecisionTrueSim": 0.0,
            "Bp_Hlt1LowMassNoipDielectron_massSlice1_promptDecisionTrueSim": 0.0,
            "Bp_Hlt1LowMassNoipDielectron_massSlice2_displacedDecisionTrueSim": 0.0,
            "Bp_Hlt1LowMassNoipDielectron_massSlice2_promptDecisionTrueSim": 0.0,
            "Bp_Hlt1LowMassNoipDielectron_massSlice3_displacedDecisionTrueSim": 0.0,
            "Bp_Hlt1LowMassNoipDielectron_massSlice3_promptDecisionTrueSim": 0.0,
            "Bp_Hlt1LowMassNoipDielectron_massSlice4_displacedDecisionTrueSim": 0.0,
            "Bp_Hlt1LowMassNoipDielectron_massSlice4_promptDecisionTrueSim": 0.0,
            "Bp_Hlt1LowPtDiMuonDecisionTrueSim": 0.000651890482398957,
            "Bp_Hlt1LowPtMuonDecisionTrueSim": 0.001738374619730552,
            "Bp_Hlt1ODINLumiDecisionTrueSim": 0.0,
            "Bp_Hlt1ODINNoBiasDecisionTrueSim": 0.0,
            "Bp_Hlt1OneMuonTrackLineDecisionTrueSim": 0.0,
            "Bp_Hlt1PassthroughDecisionTrueSim": 0.0,
            "Bp_Hlt1RICH1AlignmentDecisionTrueSim": 0.000869187309865276,
            "Bp_Hlt1RICH2AlignmentDecisionTrueSim": 0.001955671447196871,
            "Bp_Hlt1SingleHighEtDecisionTrueSim": 0.0,
            "Bp_Hlt1SingleHighPtElectronDecisionTrueSim": 0.15254237288135594,
            "Bp_Hlt1SingleHighPtMuonDecisionTrueSim": 0.0,
            "Bp_Hlt1SingleHighPtMuonNoMuIDDecisionTrueSim": 0.003042155584528466,
            "Bp_Hlt1TrackElectronMVADecisionTrueSim": 0.8509343763581052,
            "Bp_Hlt1TrackMVADecisionTrueSim": 0.5597566275532377,
            "Bp_Hlt1TrackMuonMVADecisionTrueSim": 0.001303780964797914,
            "Bp_Hlt1TwoKsDecisionTrueSim": 0.0,
            "Bp_Hlt1TwoTrackKsDecisionTrueSim": 0.0,
            "Bp_Hlt1TwoTrackMVACharmXSecDecisionTrueSim": 0.3050847457627119,
            "Bp_Hlt1TwoTrackMVADecisionTrueSim": 0.8531073446327684,
            "Bp_Hlt1VeloMicroBiasDecisionTrueSim": 0.0,
            "Bp_Hlt2RD_BuToPipEE_NominalDecisionTrueSim": 0.9852238157322903,
            "Hlt1BeamGasDecision": 0.0,
            "Hlt1Bs2GammaGammaDecision": 0.1477618426770969,
            "Hlt1D2KKDecision": 0.057583659278574534,
            "Hlt1D2KPiAlignmentDecision": 0.08974358974358974,
            "Hlt1D2KPiDecision": 0.08974358974358974,
            "Hlt1D2PiPiDecision": 0.06366797044763146,
            "Hlt1DiMuonDrellYanDecision": 0.000217296827466319,
            "Hlt1DiMuonDrellYan_SSDecision": 0.0,
            "Hlt1DiMuonDrellYan_VLowMassDecision": 0.0,
            "Hlt1DiMuonDrellYan_VLowMass_SSDecision": 0.000217296827466319,
            "Hlt1DiMuonHighMassAlignmentDecision": 0.0,
            "Hlt1DiMuonHighMassDecision": 0.012168622338113864,
            "Hlt1DiMuonLowMassDecision": 0.03389830508474576,
            "Hlt1DiMuonNoIPDecision": 0.03498478922207736,
            "Hlt1DiMuonNoIP_ssDecision": 0.002824858757062147,
            "Hlt1DiMuonSoftDecision": 0.000217296827466319,
            "Hlt1DisplacedDiMuonAlignmentDecision": 0.000217296827466319,
            "Hlt1DisplacedDielectronDecision": 0.6103867883528901,
            "Hlt1DisplacedLeptonsDecision": 0.6297262059973925,
            "Hlt1GECPassthroughDecision": 0.000869187309865276,
            "Hlt1KsToPiPiDecision": 0.03129074315514994,
            "Hlt1L02PPiDecision": 0.044111255975662754,
            "Hlt1LowMassNoipDielectron_SS_massSlice1_displacedDecision": 0.0,
            "Hlt1LowMassNoipDielectron_SS_massSlice1_promptDecision": 0.0,
            "Hlt1LowMassNoipDielectron_SS_massSlice2_displacedDecision": 0.0,
            "Hlt1LowMassNoipDielectron_SS_massSlice2_promptDecision": 0.000434593654932638,
            "Hlt1LowMassNoipDielectron_SS_massSlice3_displacedDecision": 0.0,
            "Hlt1LowMassNoipDielectron_SS_massSlice3_promptDecision": 0.000434593654932638,
            "Hlt1LowMassNoipDielectron_SS_massSlice4_displacedDecision": 0.0,
            "Hlt1LowMassNoipDielectron_SS_massSlice4_promptDecision": 0.000217296827466319,
            "Hlt1LowMassNoipDielectron_massSlice1_displacedDecision": 0.000217296827466319,
            "Hlt1LowMassNoipDielectron_massSlice1_promptDecision": 0.000217296827466319,
            "Hlt1LowMassNoipDielectron_massSlice2_displacedDecision": 0.000217296827466319,
            "Hlt1LowMassNoipDielectron_massSlice2_promptDecision": 0.000217296827466319,
            "Hlt1LowMassNoipDielectron_massSlice3_displacedDecision": 0.001521077792264233,
            "Hlt1LowMassNoipDielectron_massSlice3_promptDecision": 0.000217296827466319,
            "Hlt1LowMassNoipDielectron_massSlice4_displacedDecision": 0.0023902651021295088,
            "Hlt1LowMassNoipDielectron_massSlice4_promptDecision": 0.001303780964797914,
            "Hlt1LowPtDiMuonDecision": 0.046284224250325946,
            "Hlt1LowPtMuonDecision": 0.1395045632333768,
            "Hlt1ODINLumiDecision": 0.0,
            "Hlt1ODINNoBiasDecision": 0.0,
            "Hlt1OneMuonTrackLineDecision": 0.6820947414167753,
            "Hlt1PassthroughDecision": 0.000651890482398957,
            "Hlt1RICH1AlignmentDecision": 0.0023902651021295088,
            "Hlt1RICH2AlignmentDecision": 0.0023902651021295088,
            "Hlt1SingleHighEtDecision": 0.001521077792264233,
            "Hlt1SingleHighPtElectronDecision": 0.15732290308561495,
            "Hlt1SingleHighPtMuonDecision": 0.001738374619730552,
            "Hlt1SingleHighPtMuonNoMuIDDecision": 0.004345936549326379,
            "Hlt1TrackElectronMVADecision": 0.8574532811820947,
            "Hlt1TrackMVADecision": 0.5862668405041287,
            "Hlt1TrackMuonMVADecision": 0.01086484137331595,
            "Hlt1TwoKsDecision": 0.001303780964797914,
            "Hlt1TwoTrackKsDecision": 0.006301607996523251,
            "Hlt1TwoTrackMVACharmXSecDecision": 0.6816601477618427,
            "Hlt1TwoTrackMVADecision": 0.8941764450239027,
            "Hlt1VeloMicroBiasDecision": 0.001303780964797914,
            "Hlt2RD_BuToPipEE_NominalDecision": 1.0
        }
    },
    "integrated_efficiencies_errors": {
        "CanRecoChildren": {
            "Bp_Hlt1BeamGasDecisionTrueSim": 0.0,
            "Bp_Hlt1Bs2GammaGammaDecisionTrueSim": 0.0,
            "Bp_Hlt1D2KKDecisionTrueSim": 0.002811632202257626,
            "Bp_Hlt1D2KPiAlignmentDecisionTrueSim": 0.0036445846992201295,
            "Bp_Hlt1D2KPiDecisionTrueSim": 0.0036445846992201295,
            "Bp_Hlt1D2PiPiDecisionTrueSim": 0.003178773697773324,
            "Bp_Hlt1DiMuonDrellYanDecisionTrueSim": 0.0,
            "Bp_Hlt1DiMuonDrellYan_SSDecisionTrueSim": 0.0,
            "Bp_Hlt1DiMuonDrellYan_VLowMassDecisionTrueSim": 0.0,
            "Bp_Hlt1DiMuonDrellYan_VLowMass_SSDecisionTrueSim": 0.0,
            "Bp_Hlt1DiMuonHighMassAlignmentDecisionTrueSim": 0.0,
            "Bp_Hlt1DiMuonHighMassDecisionTrueSim": 0.0,
            "Bp_Hlt1DiMuonLowMassDecisionTrueSim": 0.0003072373369963645,
            "Bp_Hlt1DiMuonNoIPDecisionTrueSim": 0.00021727321722802838,
            "Bp_Hlt1DiMuonNoIP_ssDecisionTrueSim": 0.0,
            "Bp_Hlt1DiMuonSoftDecisionTrueSim": 0.0,
            "Bp_Hlt1DisplacedDiMuonAlignmentDecisionTrueSim": 0.0,
            "Bp_Hlt1DisplacedDielectronDecisionTrueSim": 0.0072300834104788375,
            "Bp_Hlt1DisplacedLeptonsDecisionTrueSim": 0.0,
            "Bp_Hlt1GECPassthroughDecisionTrueSim": 0.0,
            "Bp_Hlt1KsToPiPiDecisionTrueSim": 0.0,
            "Bp_Hlt1L02PPiDecisionTrueSim": 0.0003072373369963645,
            "Bp_Hlt1LowMassNoipDielectron_SS_massSlice1_displacedDecisionTrueSim": 0.0,
            "Bp_Hlt1LowMassNoipDielectron_SS_massSlice1_promptDecisionTrueSim": 0.0,
            "Bp_Hlt1LowMassNoipDielectron_SS_massSlice2_displacedDecisionTrueSim": 0.0,
            "Bp_Hlt1LowMassNoipDielectron_SS_massSlice2_promptDecisionTrueSim": 0.0,
            "Bp_Hlt1LowMassNoipDielectron_SS_massSlice3_displacedDecisionTrueSim": 0.0,
            "Bp_Hlt1LowMassNoipDielectron_SS_massSlice3_promptDecisionTrueSim": 0.0,
            "Bp_Hlt1LowMassNoipDielectron_SS_massSlice4_displacedDecisionTrueSim": 0.0,
            "Bp_Hlt1LowMassNoipDielectron_SS_massSlice4_promptDecisionTrueSim": 0.0,
            "Bp_Hlt1LowMassNoipDielectron_massSlice1_displacedDecisionTrueSim": 0.0,
            "Bp_Hlt1LowMassNoipDielectron_massSlice1_promptDecisionTrueSim": 0.0,
            "Bp_Hlt1LowMassNoipDielectron_massSlice2_displacedDecisionTrueSim": 0.0,
            "Bp_Hlt1LowMassNoipDielectron_massSlice2_promptDecisionTrueSim": 0.0,
            "Bp_Hlt1LowMassNoipDielectron_massSlice3_displacedDecisionTrueSim": 0.0,
            "Bp_Hlt1LowMassNoipDielectron_massSlice3_promptDecisionTrueSim": 0.0,
            "Bp_Hlt1LowMassNoipDielectron_massSlice4_displacedDecisionTrueSim": 0.0,
            "Bp_Hlt1LowMassNoipDielectron_massSlice4_promptDecisionTrueSim": 0.0,
            "Bp_Hlt1LowPtDiMuonDecisionTrueSim": 0.00037624644976397964,
            "Bp_Hlt1LowPtMuonDecisionTrueSim": 0.0006140737988773247,
            "Bp_Hlt1ODINLumiDecisionTrueSim": 0.0,
            "Bp_Hlt1ODINNoBiasDecisionTrueSim": 0.0,
            "Bp_Hlt1OneMuonTrackLineDecisionTrueSim": 0.0,
            "Bp_Hlt1PassthroughDecisionTrueSim": 0.0,
            "Bp_Hlt1RICH1AlignmentDecisionTrueSim": 0.0004344047422286751,
            "Bp_Hlt1RICH2AlignmentDecisionTrueSim": 0.0006512527286355888,
            "Bp_Hlt1SingleHighEtDecisionTrueSim": 0.0,
            "Bp_Hlt1SingleHighPtElectronDecisionTrueSim": 0.005300061854556143,
            "Bp_Hlt1SingleHighPtMuonDecisionTrueSim": 0.0,
            "Bp_Hlt1SingleHighPtMuonNoMuIDDecisionTrueSim": 0.0008118126248860498,
            "Bp_Hlt1TrackElectronMVADecisionTrueSim": 0.005250050464154885,
            "Bp_Hlt1TrackMVADecisionTrueSim": 0.007317668447288842,
            "Bp_Hlt1TrackMuonMVADecisionTrueSim": 0.0005319192574803362,
            "Bp_Hlt1TwoKsDecisionTrueSim": 0.0,
            "Bp_Hlt1TwoTrackKsDecisionTrueSim": 0.0,
            "Bp_Hlt1TwoTrackMVACharmXSecDecisionTrueSim": 0.006787390904160346,
            "Bp_Hlt1TwoTrackMVADecisionTrueSim": 0.005218294365149873,
            "Bp_Hlt1VeloMicroBiasDecisionTrueSim": 0.0,
            "Bp_Hlt2RD_BuToPipEE_NominalDecisionTrueSim": 0.0017785877334428328,
            "Hlt1BeamGasDecision": 0.0,
            "Hlt1Bs2GammaGammaDecision": 0.005231043475879124,
            "Hlt1D2KKDecision": 0.003433979724091613,
            "Hlt1D2KPiAlignmentDecision": 0.004213182625064266,
            "Hlt1D2KPiDecision": 0.004213182625064266,
            "Hlt1D2PiPiDecision": 0.003599168139521599,
            "Hlt1DiMuonDrellYanDecision": 0.00021727321722802838,
            "Hlt1DiMuonDrellYan_SSDecision": 0.0,
            "Hlt1DiMuonDrellYan_VLowMassDecision": 0.0,
            "Hlt1DiMuonDrellYan_VLowMass_SSDecision": 0.00021727321722802838,
            "Hlt1DiMuonHighMassAlignmentDecision": 0.0,
            "Hlt1DiMuonHighMassDecision": 0.0016161765747177133,
            "Hlt1DiMuonLowMassDecision": 0.002667639299906195,
            "Hlt1DiMuonNoIPDecision": 0.0027085284586613762,
            "Hlt1DiMuonNoIP_ssDecision": 0.0007823674679201579,
            "Hlt1DiMuonSoftDecision": 0.00021727321722802838,
            "Hlt1DisplacedDiMuonAlignmentDecision": 0.00021727321722802838,
            "Hlt1DisplacedDielectronDecision": 0.0071886293694597295,
            "Hlt1DisplacedLeptonsDecision": 0.0071180996607845375,
            "Hlt1GECPassthroughDecision": 0.0004344047422286751,
            "Hlt1KsToPiPiDecision": 0.002566441425007397,
            "Hlt1L02PPiDecision": 0.0030269488236847513,
            "Hlt1LowMassNoipDielectron_SS_massSlice1_displacedDecision": 0.0,
            "Hlt1LowMassNoipDielectron_SS_massSlice1_promptDecision": 0.0,
            "Hlt1LowMassNoipDielectron_SS_massSlice2_displacedDecision": 0.0,
            "Hlt1LowMassNoipDielectron_SS_massSlice2_promptDecision": 0.0003072373369963645,
            "Hlt1LowMassNoipDielectron_SS_massSlice3_displacedDecision": 0.0,
            "Hlt1LowMassNoipDielectron_SS_massSlice3_promptDecision": 0.0003072373369963645,
            "Hlt1LowMassNoipDielectron_SS_massSlice4_displacedDecision": 0.0,
            "Hlt1LowMassNoipDielectron_SS_massSlice4_promptDecision": 0.00021727321722802838,
            "Hlt1LowMassNoipDielectron_massSlice1_displacedDecision": 0.00021727321722802838,
            "Hlt1LowMassNoipDielectron_massSlice1_promptDecision": 0.00021727321722802838,
            "Hlt1LowMassNoipDielectron_massSlice2_displacedDecision": 0.00021727321722802838,
            "Hlt1LowMassNoipDielectron_massSlice2_promptDecision": 0.00021727321722802838,
            "Hlt1LowMassNoipDielectron_massSlice3_displacedDecision": 0.0005744759557852181,
            "Hlt1LowMassNoipDielectron_massSlice3_promptDecision": 0.00021727321722802838,
            "Hlt1LowMassNoipDielectron_massSlice4_displacedDecision": 0.000719830207004948,
            "Hlt1LowMassNoipDielectron_massSlice4_promptDecision": 0.0005319192574803362,
            "Hlt1LowPtDiMuonDecision": 0.0030970817612503403,
            "Hlt1LowPtMuonDecision": 0.005107344884254358,
            "Hlt1ODINLumiDecision": 0.0,
            "Hlt1ODINNoBiasDecision": 0.0,
            "Hlt1OneMuonTrackLineDecision": 0.006864325977964596,
            "Hlt1PassthroughDecision": 0.00037624644976397964,
            "Hlt1RICH1AlignmentDecision": 0.000719830207004948,
            "Hlt1RICH2AlignmentDecision": 0.000719830207004948,
            "Hlt1SingleHighEtDecision": 0.0005744759557852181,
            "Hlt1SingleHighPtElectronDecision": 0.005367267787717448,
            "Hlt1SingleHighPtMuonDecision": 0.0006140737988773247,
            "Hlt1SingleHighPtMuonNoMuIDDecision": 0.000969667006561977,
            "Hlt1TrackElectronMVADecision": 0.005153597996578061,
            "Hlt1TrackMVADecision": 0.007259964936549585,
            "Hlt1TrackMuonMVADecision": 0.0015281507797247516,
            "Hlt1TwoKsDecision": 0.0005319192574803362,
            "Hlt1TwoTrackKsDecision": 0.0011664863956938605,
            "Hlt1TwoTrackMVACharmXSecDecision": 0.006866827697262456,
            "Hlt1TwoTrackMVADecision": 0.004534500758533784,
            "Hlt1VeloMicroBiasDecision": 0.0005319192574803362,
            "Hlt2RD_BuToPipEE_NominalDecision": 0.0
        }
    }
}